<?xml version="1.0" encoding="UTF-8" standalone="no"?>
<svg
   id="svg8"
   version="1.1"
   viewBox="0 0 37.417732 37.41774"
   height="37.41774mm"
   width="37.417732mm"
   xmlns="http://www.w3.org/2000/svg"
   xmlns:svg="http://www.w3.org/2000/svg"
   xmlns:rdf="http://www.w3.org/1999/02/22-rdf-syntax-ns#"
   xmlns:cc="http://creativecommons.org/ns#"
   xmlns:dc="http://purl.org/dc/elements/1.1/">
  <defs
     id="defs2" />
  <metadata
     id="metadata5">
    <rdf:RDF>
      <cc:Work
         rdf:about="">
        <dc:format>image/svg+xml</dc:format>
        <dc:type
           rdf:resource="http://purl.org/dc/dcmitype/StillImage" />
        <dc:title />
      </cc:Work>
    </rdf:RDF>
  </metadata>
  <g
     id="layer1"
     transform="translate(-11.159585,-407.05079)">
    <path
       style="color:#000000;overflow:visible;fill:#0052ce;fill-opacity:1;fill-rule:evenodd;stroke:none;stroke-width:1;stroke-linecap:round;stroke-linejoin:bevel;stroke-miterlimit:4;stroke-dasharray:none;stroke-opacity:1"
       id="path839-1-0-1-2-9-7-3-0-2-0-3-36"
       d="m 37.805953,444.28051 -15.421047,0.18803 -11.037287,-10.77137 -0.188034,-15.42104 10.771366,-11.03729 15.421047,-0.18803 11.037287,10.77136 0.188034,15.42105 z" />
    <g
       style="stroke:#00ffff;stroke-width:1.32193;stroke-miterlimit:4;stroke-dasharray:none;stroke-opacity:1"
       transform="matrix(1,0,0,1.2875626,-85.19763,200.52576)"
       id="g1654-6-6-1-0-5-3-7-6-7">
      <path
         style="fill:#000000;fill-rule:evenodd;stroke:#00ffff;stroke-width:1.32193;stroke-linecap:round;stroke-linejoin:round;stroke-miterlimit:4;stroke-dasharray:none;stroke-opacity:1"
         d="m 102.80951,167.93697 v 13.22916"
         id="path948-53-6-8-5-0-2-2-2-8-7-5" />
      <path
         id="path948-5-2-3-52-5-8-6-0-7-6-5-3"
         d="m 106.77828,167.93697 -3.96877,3e-5"
         style="fill:#000000;fill-rule:evenodd;stroke:#00ffff;stroke-width:1.32193;stroke-linecap:round;stroke-linejoin:round;stroke-miterlimit:4;stroke-dasharray:none;stroke-opacity:1" />
      <path
         id="path948-9-1-8-8-3-9-4-2-3-8-3-5"
         d="m 105.19078,167.93697 v 13.22916"
         style="fill:#000000;fill-rule:evenodd;stroke:#00ffff;stroke-width:1.32193;stroke-linecap:round;stroke-linejoin:round;stroke-miterlimit:4;stroke-dasharray:none;stroke-opacity:1" />
      <path
         style="fill:#000000;fill-rule:evenodd;stroke:#00ffff;stroke-width:1.32193;stroke-linecap:round;stroke-linejoin:round;stroke-miterlimit:4;stroke-dasharray:none;stroke-opacity:1"
         d="m 106.77828,181.16613 h -3.96876"
         id="path948-5-9-9-5-36-8-0-3-4-9-8-5-6" />
    </g>
    <g
       id="g1654-9-8-0-1-8-3-0-4-6-2"
       transform="matrix(-1,0,0,1.2875626,145.14284,200.65393)"
       style="stroke:#00ffff;stroke-width:1.32193;stroke-miterlimit:4;stroke-dasharray:none;stroke-opacity:1">
      <path
         id="path948-53-6-3-9-68-3-6-7-1-3-2-9"
         d="m 102.80951,167.93697 v 13.22916"
         style="fill:#000000;fill-rule:evenodd;stroke:#00ffff;stroke-width:1.32193;stroke-linecap:round;stroke-linejoin:round;stroke-miterlimit:4;stroke-dasharray:none;stroke-opacity:1" />
      <path
         style="fill:#000000;fill-rule:evenodd;stroke:#00ffff;stroke-width:1.32193;stroke-linecap:round;stroke-linejoin:round;stroke-miterlimit:4;stroke-dasharray:none;stroke-opacity:1"
         d="m 106.77828,167.93697 -3.96877,3e-5"
         id="path948-5-2-3-5-4-5-4-7-3-5-1-9-1" />
      <path
         style="fill:#000000;fill-rule:evenodd;stroke:#00ffff;stroke-width:1.32193;stroke-linecap:round;stroke-linejoin:round;stroke-miterlimit:4;stroke-dasharray:none;stroke-opacity:1"
         d="m 105.19078,167.93697 v 13.22916"
         id="path948-9-1-8-4-1-4-8-0-0-0-4-1-2" />
      <path
         id="path948-5-9-9-5-3-6-9-5-8-0-6-9-2-7"
         d="m 106.77828,181.16613 h -3.96876"
         style="fill:#000000;fill-rule:evenodd;stroke:#00ffff;stroke-width:1.32193;stroke-linecap:round;stroke-linejoin:round;stroke-miterlimit:4;stroke-dasharray:none;stroke-opacity:1" />
    </g>
    <path
       id="path4327-8-1-1-9-2-7-0"
       d="m 23.58589,420.54158 h 5.55625"
       style="fill:none;fill-rule:evenodd;stroke:#80ff80;stroke-width:2;stroke-linecap:round;stroke-linejoin:miter;stroke-miterlimit:4;stroke-dasharray:none;stroke-opacity:1" />
    <path
       style="fill:none;fill-rule:evenodd;stroke:#80ff80;stroke-width:2;stroke-linecap:round;stroke-linejoin:miter;stroke-miterlimit:4;stroke-dasharray:none;stroke-opacity:1"
       d="M 34.16923,420.54158 H 36.2859"
       id="path4327-4-2-9-5-7-06-0-9" />
    <path
       id="path4327-4-8-20-8-8-9-8-9-3"
       d="m 23.58589,429.802 h 1.5875"
       style="fill:none;fill-rule:evenodd;stroke:#80ff80;stroke-width:2;stroke-linecap:round;stroke-linejoin:miter;stroke-miterlimit:4;stroke-dasharray:none;stroke-opacity:1" />
    <path
       style="fill:none;fill-rule:evenodd;stroke:#80ff80;stroke-width:2;stroke-linecap:round;stroke-linejoin:miter;stroke-miterlimit:4;stroke-dasharray:none;stroke-opacity:1"
       d="M 34.16923,429.802 H 36.2859"
       id="path4327-4-8-3-6-1-0-2-9-3-60" />
    <path
       style="fill:none;fill-rule:evenodd;stroke:#80ff80;stroke-width:2;stroke-linecap:round;stroke-linejoin:miter;stroke-miterlimit:4;stroke-dasharray:none;stroke-opacity:1"
       d="m 29.40673,429.802 h 1.32292"
       id="path4327-4-8-2-36-6-0-8-2-6-6" />
    <path
       id="path4327-4-8-2-3-1-4-0-9-6-0-2"
       d="m 23.58589,425.0395 h 1.5875"
       style="fill:none;fill-rule:evenodd;stroke:#80ff80;stroke-width:2;stroke-linecap:round;stroke-linejoin:miter;stroke-miterlimit:4;stroke-dasharray:none;stroke-opacity:1" />
    <path
       id="path4327-4-8-2-6-0-8-4-9-64-6-6"
       d="M 35.49215,425.0395 H 36.2859"
       style="fill:none;fill-rule:evenodd;stroke:#80ff80;stroke-width:2;stroke-linecap:round;stroke-linejoin:miter;stroke-miterlimit:4;stroke-dasharray:none;stroke-opacity:1" />
    <g
       transform="matrix(1.2055667,0,0,1.2320598,-5.4382997,219.71344)"
       style="fill:#ff5555;fill-opacity:1;stroke:none;stroke-width:0.246156;stroke-miterlimit:4;stroke-dasharray:none;stroke-opacity:0.607243"
       id="g4440-5-5-7-8-9-2-1">
      <path
         id="path4442-7-0-5-9-5-6-8"
         d="m 27.78125,166.6875 h 2.645833"
         style="color:#000000;font-style:normal;font-variant:normal;font-weight:normal;font-stretch:normal;font-size:medium;line-height:normal;font-family:sans-serif;font-variant-ligatures:normal;font-variant-position:normal;font-variant-caps:normal;font-variant-numeric:normal;font-variant-alternates:normal;font-variant-east-asian:normal;font-feature-settings:normal;font-variation-settings:normal;text-indent:0;text-align:start;text-decoration:none;text-decoration-line:none;text-decoration-style:solid;text-decoration-color:#000000;letter-spacing:normal;word-spacing:normal;text-transform:none;writing-mode:lr-tb;direction:ltr;text-orientation:mixed;dominant-baseline:auto;baseline-shift:baseline;text-anchor:start;white-space:normal;shape-padding:0;shape-margin:0;inline-size:0;clip-rule:nonzero;display:inline;overflow:visible;visibility:visible;isolation:auto;mix-blend-mode:normal;color-interpolation:sRGB;color-interpolation-filters:linearRGB;solid-color:#000000;solid-opacity:1;vector-effect:none;fill:#ff5555;fill-opacity:1;fill-rule:evenodd;stroke:none;stroke-width:0.246156;stroke-linecap:round;stroke-linejoin:miter;stroke-miterlimit:4;stroke-dasharray:none;stroke-dashoffset:0;stroke-opacity:0.607243;color-rendering:auto;image-rendering:auto;shape-rendering:auto;text-rendering:auto;enable-background:accumulate;stop-color:#000000;stop-opacity:1" />
      <path
         id="path4444-4-1-3-3-0-1-7"
         d="m 28.310417,165.6875 a 1,1 0 0 0 -1,1 1,1 0 0 0 1,1 h 2.646484 a 1,1 0 0 0 1,-1 1,1 0 0 0 -1,-1 z"
         style="color:#000000;font-style:normal;font-variant:normal;font-weight:normal;font-stretch:normal;font-size:medium;line-height:normal;font-family:sans-serif;font-variant-ligatures:normal;font-variant-position:normal;font-variant-caps:normal;font-variant-numeric:normal;font-variant-alternates:normal;font-variant-east-asian:normal;font-feature-settings:normal;font-variation-settings:normal;text-indent:0;text-align:start;text-decoration:none;text-decoration-line:none;text-decoration-style:solid;text-decoration-color:#000000;letter-spacing:normal;word-spacing:normal;text-transform:none;writing-mode:lr-tb;direction:ltr;text-orientation:mixed;dominant-baseline:auto;baseline-shift:baseline;text-anchor:start;white-space:normal;shape-padding:0;shape-margin:0;inline-size:0;clip-rule:nonzero;display:inline;overflow:visible;visibility:visible;isolation:auto;mix-blend-mode:normal;color-interpolation:sRGB;color-interpolation-filters:linearRGB;solid-color:#000000;solid-opacity:1;vector-effect:none;fill:#ff5555;fill-opacity:1;fill-rule:evenodd;stroke:none;stroke-width:0.246156;stroke-linecap:round;stroke-linejoin:miter;stroke-miterlimit:4;stroke-dasharray:none;stroke-dashoffset:0;stroke-opacity:0.607243;color-rendering:auto;image-rendering:auto;shape-rendering:auto;text-rendering:auto;enable-background:accumulate;stop-color:#000000;stop-opacity:1" />
    </g>
    <g
       id="g6262-6-4-8-92"
       style="stroke:#00ffff;stroke-width:0.9;stroke-miterlimit:4;stroke-dasharray:none"
       transform="translate(-158.53995,243.46056)">
      <path
         id="path948-9-2-8-6-0-5-9-5-6-8-3-8-7-0"
         d="m 185.25075,166.7979 v 6.14016"
         style="fill:none;fill-rule:evenodd;stroke:#00ffff;stroke-width:0.9;stroke-linecap:round;stroke-linejoin:round;stroke-miterlimit:4;stroke-dasharray:none;stroke-opacity:1" />
      <path
         id="path948-9-2-8-6-0-8-7-4-0-4-6-7-9-2"
         d="m 186.51437,166.7979 v 6.14016"
         style="fill:none;fill-rule:evenodd;stroke:#00ffff;stroke-width:0.9;stroke-linecap:round;stroke-linejoin:round;stroke-miterlimit:4;stroke-dasharray:none;stroke-opacity:1" />
      <path
         style="fill:none;fill-rule:evenodd;stroke:#00ffff;stroke-width:0.9;stroke-linecap:round;stroke-linejoin:round;stroke-miterlimit:4;stroke-dasharray:none;stroke-opacity:1"
         d="m 191.56885,166.7979 v 6.14016"
         id="path948-9-2-8-6-0-5-7-0-6-0-0-0-1-2-3" />
      <path
         style="fill:none;fill-rule:evenodd;stroke:#00ffff;stroke-width:0.9;stroke-linecap:round;stroke-linejoin:round;stroke-miterlimit:4;stroke-dasharray:none;stroke-opacity:1"
         d="m 192.83247,166.7979 v 6.14016"
         id="path948-9-2-8-6-0-8-1-3-4-6-8-4-7-0-7" />
      <path
         style="fill:none;fill-rule:evenodd;stroke:#00ffff;stroke-width:0.9;stroke-linecap:round;stroke-linejoin:round;stroke-miterlimit:4;stroke-dasharray:none;stroke-opacity:1"
         d="m 185.25075,166.7979 h 1.26362"
         id="path948-9-2-8-6-0-5-70-7-2-4-4-4-27-2-5" />
      <path
         id="path948-9-2-8-6-0-5-70-6-2-5-3-2-9-2-3-9"
         d="m 191.56885,166.7979 h 1.26362"
         style="fill:none;fill-rule:evenodd;stroke:#00ffff;stroke-width:0.9;stroke-linecap:round;stroke-linejoin:round;stroke-miterlimit:4;stroke-dasharray:none;stroke-opacity:1" />
      <path
         style="fill:none;fill-rule:evenodd;stroke:#00ffff;stroke-width:0.9;stroke-linecap:round;stroke-linejoin:round;stroke-miterlimit:4;stroke-dasharray:none;stroke-opacity:1"
         d="m 186.51437,166.7979 2.47196,4.00095"
         id="path948-9-2-8-6-0-8-0-3-1-7-5-6-2-7-2" />
      <path
         id="path948-9-2-8-6-0-8-0-4-5-6-5-4-6-6-5-28"
         d="m 191.56885,166.7979 -2.58252,4.00095"
         style="fill:none;fill-rule:evenodd;stroke:#00ffff;stroke-width:0.9;stroke-linecap:round;stroke-linejoin:round;stroke-miterlimit:4;stroke-dasharray:none;stroke-opacity:1" />
      <path
         id="path948-9-2-8-6-0-5-70-1-1-1-8-2-4-1-9-9"
         d="m 185.25075,172.93806 h 1.26362"
         style="fill:none;fill-rule:evenodd;stroke:#00ffff;stroke-width:0.9;stroke-linecap:round;stroke-linejoin:round;stroke-miterlimit:4;stroke-dasharray:none;stroke-opacity:1" />
      <path
         id="path948-9-2-8-6-0-5-70-3-7-3-1-7-1-0-2-7"
         d="m 191.56885,172.93806 h 1.26362"
         style="fill:none;fill-rule:evenodd;stroke:#00ffff;stroke-width:0.9;stroke-linecap:round;stroke-linejoin:round;stroke-miterlimit:4;stroke-dasharray:none;stroke-opacity:1" />
    </g>
    <g
       transform="matrix(0.6953386,0,0,0.68588017,-71.52392,315.83174)"
       id="g1726-9-8-4-1-5-9-6-2-3"
       style="stroke:#00ffff;stroke-width:1.44803;stroke-miterlimit:4;stroke-dasharray:none;stroke-opacity:1">
      <g
         transform="translate(24.834603,52.683099)"
         id="g5724-7-8-1-8-61"
         style="stroke:#00ffff;stroke-width:1.44803;stroke-miterlimit:4;stroke-dasharray:none">
        <path
           id="path948-9-2-8-6-1-7-7-1-5-0-5-9-2"
           d="m 120.12082,120.91461 v 8.20207"
           style="fill:#000000;fill-rule:evenodd;stroke:#00ffff;stroke-width:1.44803;stroke-linecap:round;stroke-linejoin:round;stroke-miterlimit:4;stroke-dasharray:none;stroke-opacity:1" />
        <path
           style="fill:#000000;fill-rule:evenodd;stroke:#00ffff;stroke-width:1.44803;stroke-linecap:round;stroke-linejoin:round;stroke-miterlimit:4;stroke-dasharray:none;stroke-opacity:1"
           d="m 123.29584,119.59168 v 8.20207"
           id="path948-9-2-8-6-4-7-9-0-3-2-4-9-7-9" />
        <path
           id="path948-5-6-6-3-7-3-4-1-2-9-4-3-3"
           d="m 119.0625,123.03125 5.29167,-1.32291"
           style="fill:#000000;fill-rule:evenodd;stroke:#00ffff;stroke-width:1.44803;stroke-linecap:round;stroke-linejoin:round;stroke-miterlimit:4;stroke-dasharray:none;stroke-opacity:1" />
        <path
           id="path948-5-6-6-36-4-8-9-5-8-0-9-6-19"
           d="m 119.0625,127 5.29167,-1.32291"
           style="fill:#000000;fill-rule:evenodd;stroke:#00ffff;stroke-width:1.44803;stroke-linecap:round;stroke-linejoin:round;stroke-miterlimit:4;stroke-dasharray:none;stroke-opacity:1" />
      </g>
    </g>
  </g>
</svg>
